692285 291033 509
200453 206410 355
860565 57273 525
356954 351872 379
150049 730814 509
266129 465333 449
285723 822628 509
306061 247971 407
304249 932343 525
144429 595817 470
271554 545956 470
561952 545488 452
580292 225799 470
675642 647050 442
565878 769609 509
767780 655765 504
965892 959417 414
40883 931565 525
440048 721251 509
139354 88377 354
966559 873016 507
205323 245028 443
435604 150670 449
569170 695253 509
171740 871726 525
914467 936431 476
434480 420310 418
902626 774953 525
169904 719464 509
794244 660729 504
416031 994064 525
562191 494157 470
800840 421673 509
355709 895927 525
514179 718849 509
945325 333376 525
983464 316863 525
955119 556673 525
237939 543494 470
271913 513927 470
607395 146487 470
10181 286381 443
968632 569487 525
807018 613204 509
226608 622680 470
23239 259904 443
97037 578088 470
634703 825275 504
543421 263391 470
212196 578806 470
413786 428364 418
408739 573828 470
921113 514445 525
799934 591248 509
616274 970658 525
755947 434511 509
413446 428057 418
263036 718538 509
45365 370038 443
257978 573686 470
49376 417344 449
90566 620349 470
15179 984243 525
187302 160638 365
361233 856343 525
853713 780668 525
349235 190668 443
423193 460259 418
394652 545095 470
637058 846481 525
986238 806922 525
223481 563246 470
688535 309304 509
132261 301245 443
768789 999471 525
777865 960848 525
963325 254106 525
944947 305154 525
778296 824924 468
718564 421178 509
505881 441493 444
915557 784267 525
829371 798467 450
14075 874137 525
489215 10906 449
504975 100485 449
986993 134004 525
921847 261976 525
715400 12537 509
545675 884450 525
219722 550502 470
925617 562526 525
519907 472873 470
909207 863363 445
552232 789112 509
833221 442120 509
825666 462001 509
890771 765778 525
330466 235554 407
460640 245260 449
585122 182228 470
361682 635389 509
462675 292337 449
578074 278032 470
98580 347521 443
990499 135839 525
749627 395317 509
43821 592325 470
947108 373320 525
83596 678600 509
667276 819134 504
301738 727871 509
528284 146235 470
845961 455932 525
215165 666070 509
668075 119138 509
433072 393185 449
113011 710972 509
693839 682832 442
83454 124112 354
152102 919478 525
854183 826969 525
524563 799826 509
255784 882005 525
849639 235394 525
999107 67707 525
474612 537422 470
369879 456896 449
193520 340775 443
387125 51144 443
901427 673761 525
789573 974373 525
479341 687177 509
890949 288297 525
878908 818629 525
428114 708170 509
537183 587099 452
15224 369398 443
319129 787926 509
712603 323858 509
159139 589827 470
520799 629374 509
452762 923265 525
318276 736605 509
35944 593423 470
875465 374651 525
281476 751238 509
98404 290047 443
440976 712391 509
581955 3340 470
865614 626860 525
885587 213293 525
149921 170549 383
683985 600823 509
560410 255754 470
90235 563096 470
334363 738638 509
1115 842774 525
564031 239576 470
272005 108232 443
417606 486211 444
893209 287639 525
390742 39230 443
109980 863098 525
130991 867308 525
605284 390626 470
132448 404 354
447380 227585 449
258991 409476 441
493517 821208 509
621917 335949 470
336569 940234 525
811380 525646 509
683202 916192 525
860953 209640 525
260149 301723 407
610732 218407 470
959437 350384 525
326807 315847 384
953932 375709 525
533558 696210 509
941308 356863 525
20099 599645 470
507549 124052 449
893343 171022 525
840379 78918 525
367540 11905 443
668493 683467 385
703769 356972 509
354235 885664 525
342739 443880 449
525375 240616 470
810418 439524 509
495892 733376 509
418355 235834 449
996176 212687 525
129211 534688 470
409833 904569 525
212906 904232 525
797263 690484 504
479892 907824 525
475458 706853 509
945490 982033 458
818967 351059 509
752813 471555 509
248732 963602 525
61715 116610 354
83501 296921 443
397325 332329 441
42810 378458 443
644108 819832 504
710985 528847 509
470033 405151 449
198421 105711 383
470299 514834 470
569379 9335 470
731220 366028 509
344790 108582 443
832243 774016 468
534095 523724 408
527696 461651 470
201878 137434 383
479776 892794 525
533065 796009 509
450377 945847 525
724732 409955 509
301782 193632 443
803056 566397 509
4856 162331 383
640711 325336 509
608247 704900 509
33011 587612 470
783267 543293 509
680379 794473 504
126485 109071 349
320190 747007 509
875696 43347 525
52846 18233 340
74826 104804 351
114898 771491 509
509453 778374 509
966330 795811 525
927024 577437 525
579588 222315 470
154454 888797 525
244737 695200 509
730700 222414 509
38101 736749 509
583026 896803 525
341019 667825 509
