95820 569455 470
610404 375486 470
763045 732575 424
857601 764383 525
154116 671337 509
753459 285880 509
28619 265739 443
230142 980755 525
610849 611606 354
705205 134480 509
722101 250641 509
285797 827126 509
219287 164463 386
559367 424801 470
558108 107441 470
506274 487870 426
986655 443942 525
665560 341277 509
900902 275292 525
993654 338539 525
879325 265132 525
75418 663580 509
156201 4030 383
421393 396396 449
852171 18191 525
443832 42849 449
560345 46417 470
886969 328039 525
648283 915413 525
591817 147185 470
217430 149850 386
639327 127685 509
732236 461300 509
986547 288732 525
170131 505891 449
211740 60619 383
335660 145671 443
949678 556949 525
925846 432976 525
390268 599790 470
695925 178690 509
958548 336305 525
843154 536853 525
594447 971860 525
506670 264351 449
509613 50591 449
516905 609584 452
825606 993969 525
661841 587589 509
12150 995177 525
574379 857207 525
74438 708130 509
801351 859338 525
942398 650919 525
37987 463530 449
160662 464132 449
647419 686537 442
25505 757548 509
709126 984398 525
868906 219739 525
444497 5318 449
38446 857019 525
617068 454590 470
121493 647588 509
737010 186820 509
12564 939505 525
995287 452582 525
69243 366368 443
129039 56531 354
964255 199130 525
91785 65136 351
612584 833094 509
724311 657635 504
561028 805011 509
583404 326451 470
582747 515439 452
146471 1955 375
851416 838077 419
543741 948745 525
169977 653721 509
20568 715887 509
581005 142801 470
623267 326677 470
155637 802111 509
304732 229056 443
550579 606484 434
25376 791543 509
854506 373220 525
557121 517124 452
899608 413941 525
651116 811102 504
799879 645407 504
372388 350551 410
49932 839828 525
698364 834483 504
45212 547029 470
816290 462545 509
952587 674380 525
454635 194403 449
959447 352584 525
548359 266090 470
56344 153914 375
985819 656391 525
446931 703868 509
45489 107288 354
870313 468546 525
224592 157039 386
518018 783583 509
90607 804574 509
481524 110169 449
67878 979864 525
260823 318281 407
64184 37459 340
957299 714655 525
327551 832143 509
690706 179655 509
929237 428827 525
472423 120712 449
424187 402467 449
326310 126809 443
321336 394856 441
568549 922867 525
684107 183622 509
419807 489088 444
859149 479055 525
108631 163011 383
7044 215434 383
8011 394684 443
45263 895324 525
151542 480478 449
57404 138235 354
10290 811204 509
285501 159712 443
301475 958757 525
978732 661936 525
204088 74821 383
465875 851784 525
577624 259079 470
362171 197308 443
146907 296903 443
219757 354812 443
26661 352903 443
21420 218798 386
899190 624287 525
876254 457424 525
881291 761409 525
534306 605379 452
575679 437246 470
641238 496532 509
690350 623621 509
112506 215330 383
651496 923415 525
504032 366664 449
951320 655602 525
305473 381301 441
291057 998471 525
246417 426581 449
459456 247057 449
432287 358065 449
89075 903755 525
295346 500517 449
116833 377144 443
711648 14687 509
171354 359080 443
312453 997208 525
453143 701833 509
307038 312545 384
902752 52161 525
463156 355502 449
230560 557582 470
414053 869317 525
70279 591403 470
306513 70093 443
275278 395024 441
586466 421333 470
302166 996493 525
463177 548246 470
40352 686343 509
734580 323039 509
229315 351100 443
995943 731362 525
632127 116956 509
240685 775804 509
728253 646727 504
662970 62219 509
199337 885978 525
936231 53588 525
124897 631525 509
313054 227797 443
28974 625408 470
60685 591266 470
861566 886196 432
519057 893490 525
115348 3857 354
536198 134865 470
633068 775295 504
548416 67388 470
480430 150114 449
665724 122984 509
37656 221816 386
393031 650024 509
184938 768709 509
837980 151443 525
99340 770814 509
8769 905910 525
275719 512306 470
13020 121728 354
685225 445249 509
117484 917159 525
900442 421548 525
293083 858753 525
607401 591619 403
652556 131081 509
910639 806654 525
346816 951820 525
813883 948401 525
354619 624521 470
538461 847780 525
18135 243760 443
348780 179511 443
621931 394012 470
596400 956430 525
611652 451342 470
973323 235060 525
749284 265885 509
993803 422007 525
102881 340666 443
385231 588410 470
514225 542477 439
751036 679767 504
849253 589416 525
747228 606923 509
883828 375964 525
584795 505970 470
426490 531157 470
319992 250868 407
16574 545577 470
665512 244888 509
417295 976061 525
925827 223075 525
664780 642432 429
866901 779576 525
334968 309886 384
192227 835394 509
720295 278868 509
590701 854880 525
12206 728826 509
211277 554771 470
342048 993522 525
818236 218872 509
